Modelling epidemics with R - 7 Phenomenological Models
…
[1] 6.7e+07

The data for the sample can be obtained using the get_values_country() function.

data_country <- 
  get_values_country(
    country_name = country_name,
    sample = "first",
    type = "cases"
  )
data_country

$df_country
# A tibble: 192 × 8
   country  country_code date       value stringency_index days_since_2020_01_22
   <chr>    <chr>        <date>     <int>            <dbl>                 <dbl>
 1 United … GBR          2020-01-31     2             8.33                     9
 2 United … GBR          2020-02-01     2             8.33                    10
 3 United … GBR          2020-02-02     2            11.1                     11
 4 United … GBR          2020-02-03     8            11.1                     12
 5 United … GBR          2020-02-04     8            11.1                     13
 6 United … GBR          2020-02-05     9            11.1                     14
 7 United … GBR          2020-02-06     9            11.1                     15
 8 United … GBR          2020-02-07     9            11.1                     16
 9 United … GBR          2020-02-08    13            11.1                     17
10 United … GBR          2020-02-09    14            11.1                     18
# ℹ 182 more rows
# ℹ 2 more variables: t <dbl>, y <int>
…
The different functions of the model are the following:

model_function <- gompertz_f
model_function_d <- gompertz_f_first_d
model_function_dd <- gompertz_f_second_d

The training sample:

# Training sample
df_country_training <- 
  df_country |> 
  slice(1:(nrow(df_country) - out_of_sample_horizon))
df_country_training

# A tibble: 162 × 8
   country  country_code date       value stringency_index days_since_2020_01_22
   <chr>    <chr>        <date>     <int>            <dbl>                 <dbl>
 1 United … GBR          2020-01-31     2             8.33                     9
 2 United … GBR          2020-02-01     2             8.33                    10
 3 United … GBR          2020-02-02     2            11.1                     11
 4 United … GBR          2020-02-03     8            11.1                     12
 5 United … GBR          2020-02-04     8            11.1                     13
 6 United … GBR          2020-02-05     9            11.1                     14
 7 United … GBR          2020-02-06     9            11.1                     15
 8 United … GBR          2020-02-07     9            11.1                     16
 9 United … GBR          2020-02-08    13            11.1                     17
10 United … GBR          2020-02-09    14            11.1                     18
# ℹ 152 more rows
# ℹ 2 more variables: t <dbl>, y <int>
…
# A tibble: 1 × 5
  model_type country          AIC   BIC  RMSE
  <chr>      <chr>          <dbl> <dbl> <dbl>
1 Gompertz   United Kingdom 3049. 3062. 2885.

Let us now turn to the out-of-sample predictions. We need to compare the predictions of the model 30 days after the end of the sample, with those that were observed (but not used in the estimation). The test sample becomes:

df_country_test <- 
  df_country |> 
  slice((nrow(df_country) - out_of_sample_horizon + 1):(nrow(df_country)))
df_country_test

# A tibble: 30 × 8
   country country_code date        value stringency_index days_since_2020_01_22
   <chr>   <chr>        <date>      <int>            <dbl>                 <dbl>
 1 United… GBR          2020-07-11 288953             64.4                   171
 2 United… GBR          2020-07-12 289603             64.4                   172
 3 United… GBR          2020-07-13 290133             64.4                   173
 4 United… GBR          2020-07-14 291373             64.4                   174
 5 United… GBR          2020-07-15 291911             64.4                   175
 6 United… GBR          2020-07-16 292552             64.4                   176
 7 United… GBR          2020-07-17 293239             64.4                   177
 8 United… GBR          2020-07-18 294066             64.4                   178
 9 United… GBR          2020-07-19 294792             64.4                   179
10 United… GBR          2020-07-20 295372             64.4                   180
# ℹ 20 more rows
# ℹ 2 more variables: t <dbl>, y <int>
…
  country  = !!country_name,
  index    = seq_len(horizon_pred) - 1,
  value    = obs,
  type_obs = type_obs,
  date     = dates
) |> 
  mutate(
    model_type   = model_name,
    fitted_value = model_function(
      theta = params$coef_estimate,
      x = index)
  )
fitted_val

# A tibble: 250 × 7
   country        index value type_obs date       model_type fitted_value
   <chr>          <dbl> <int> <chr>    <date>     <chr>             <dbl>
 1 United Kingdom     0     2 obs      2020-01-31 Gompertz     0.00000149
 2 United Kingdom     1     2 obs      2020-02-01 Gompertz     0.00000446
 3 United Kingdom     2     2 obs      2020-02-02 Gompertz     0.0000127 
 4 United Kingdom     3     8 obs      2020-02-03 Gompertz     0.0000347 
 5 United Kingdom     4     8 obs      2020-02-04 Gompertz     0.0000909 
 6 United Kingdom     5     9 obs      2020-02-05 Gompertz     0.000228  
 7 United Kingdom     6     9 obs      2020-02-06 Gompertz     0.000552  
 8 United Kingdom     7     9 obs      2020-02-07 Gompertz     0.00129   
 9 United Kingdom     8    13 obs      2020-02-08 Gompertz     0.00289   
10 United Kingdom     9    14 obs      2020-02-09 Gompertz     0.00628   
# ℹ 240 more rows
…
Setting the sample argument in our function get_values_country() allows us to extract the whole sample for a specific country. We can then store each element of the returned list in a single variable:

data_country <- get_values_country(
  country_name, 
  sample = "all", 
  type = type
)

The training sample:

df_country <- data_country$df_country
df_country

# A tibble: 275 × 8
   country  country_code date       value stringency_index days_since_2020_01_22
   <chr>    <chr>        <date>     <int>            <dbl>                 <dbl>
 1 United … GBR          2020-01-31     2             8.33                     9
 2 United … GBR          2020-02-01     2             8.33                    10
 3 United … GBR          2020-02-02     2            11.1                     11
 4 United … GBR          2020-02-03     8            11.1                     12
 5 United … GBR          2020-02-04     8            11.1                     13
 6 United … GBR          2020-02-05     9            11.1                     14
 7 United … GBR          2020-02-06     9            11.1                     15
 8 United … GBR          2020-02-07     9            11.1                     16
 9 United … GBR          2020-02-08    13            11.1                     17
10 United … GBR          2020-02-09    14            11.1                     18
# ℹ 265 more rows
# ℹ 2 more variables: t <dbl>, y <int>
…
fitted_val <- tibble(
  country  = !!country_name,
  index    = seq_len(horizon_pred) - 1,
  value    = obs,
  type_obs = type_obs,
  date     = dates
) |> 
  mutate(
    model_type   = model_name,
    fitted_value = model_function(theta = params$coef_estimate, x = index)
  )

fitted_val

# A tibble: 310 × 7
   country        index value type_obs date       model_type      fitted_value
   <chr>          <dbl> <int> <chr>    <date>     <chr>                  <dbl>
 1 United Kingdom     0     2 obs      2020-01-31 Double_Gompertz      0.00630
 2 United Kingdom     1     2 obs      2020-02-01 Double_Gompertz      0.0120 
 3 United Kingdom     2     2 obs      2020-02-02 Double_Gompertz      0.0224 
 4 United Kingdom     3     8 obs      2020-02-03 Double_Gompertz      0.0407 
 5 United Kingdom     4     8 obs      2020-02-04 Double_Gompertz      0.0725 
 6 United Kingdom     5     9 obs      2020-02-05 Double_Gompertz      0.126  
 7 United Kingdom     6     9 obs      2020-02-06 Double_Gompertz      0.216  
 8 United Kingdom     7     9 obs      2020-02-07 Double_Gompertz      0.362  
 9 United Kingdom     8    13 obs      2020-02-08 Double_Gompertz      0.596  
10 United Kingdom     9    14 obs      2020-02-09 Double_Gompertz      0.963  
# ℹ 300 more rows
…
