Modelling epidemics with R - 2 Simulations with R
…
mu <- mu[, 1:Nt]

Recall that the rows of matrix mu contain the values for \(S\), \(I\), and \(R\), respectively. The columns correspond to the values at all the periods.

S <- mu[1, ]
I <- mu[2, ]
R <- mu[3, ]

N <- S + I + R
D <- 100 - N

df_lockdown <- tibble(S = S, I = I, R = R, t = time, type = "no-lockdown")
df_lockdown

# A tibble: 4,001 × 5
       S         I          R     t type       
   <dbl>     <dbl>      <dbl> <dbl> <chr>      
 1  1.00 0.000035  0            0   no-lockdown
 2  1.00 0.0000357 0.0000005    0.1 no-lockdown
 3  1.00 0.0000365 0.00000101   0.2 no-lockdown
 4  1.00 0.0000373 0.00000153   0.3 no-lockdown
 5  1.00 0.0000381 0.00000207   0.4 no-lockdown
 6  1.00 0.0000389 0.00000261   0.5 no-lockdown
 7  1.00 0.0000397 0.00000317   0.6 no-lockdown
 8  1.00 0.0000406 0.00000373   0.7 no-lockdown
 9  1.00 0.0000415 0.00000431   0.8 no-lockdown
10  1.00 0.0000424 0.00000491   0.9 no-lockdown
# ℹ 3,991 more rows
…
