Modelling epidemics with R - 4 Covid-19 Data
…
Let us create two figures that shows the evolution of the cumulative number of cases through time and the cumulative number of deaths through time, respectively.

To that end, we need to reshape the data. First, we need a table in which each row gives the value to be plotted for a given date, a given country and a given type of variable (confirmed cases or recovered).

df_plot_evolution_numbers <- 
  confirmed_df |> 
  mutate(type = "Cases") |> 
  bind_rows(
    deaths_df |> 
      mutate(type = "Deaths")
  ) |> 
  mutate(type = factor(type, levels = c("Cases", "Deaths", "Recovered")))
df_plot_evolution_numbers

# A tibble: 6,100 × 7
   country country_code date       value stringency_index days_since_2020_01_22
   <chr>   <chr>        <date>     <int>            <dbl>                 <dbl>
 1 Belgium BEL          2020-01-01    NA                0                   -21
 2 Belgium BEL          2020-01-02    NA                0                   -20
 3 Belgium BEL          2020-01-03    NA                0                   -19
 4 Belgium BEL          2020-01-04    NA                0                   -18
 5 Belgium BEL          2020-01-05    NA                0                   -17
 6 Belgium BEL          2020-01-06    NA                0                   -16
 7 Belgium BEL          2020-01-07    NA                0                   -15
 8 Belgium BEL          2020-01-08    NA                0                   -14
 9 Belgium BEL          2020-01-09    NA                0                   -13
10 Belgium BEL          2020-01-10    NA                0                   -12
# ℹ 6,090 more rows
# ℹ 1 more variable: type <fct>
…
  df_plot_evolution_numbers |> 
  filter(type %in% c("Cases", "Deaths")) |> 
  filter(date >= ymd("2020-01-21")) |> 
  mutate(
    country_type = ifelse(country %in% names_countries_large, yes = "L", "S"),
    country_type = factor(
      country_type, 
      levels = c("L", "S"),
      labels = c("Larger countries", "Smaller countries")
    )
  ) |> 
  left_join(country_codes, by = c("country", "country_code"))
df_plot_evolution_numbers_dates

# A tibble: 5,700 × 8
   country country_code date       value stringency_index days_since_2020_01_22
   <chr>   <chr>        <date>     <int>            <dbl>                 <dbl>
 1 Belgium BEL          2020-01-21    NA             0                       -1
 2 Belgium BEL          2020-01-22     0             0                        0
 3 Belgium BEL          2020-01-23     0             0                        1
 4 Belgium BEL          2020-01-24     0             0                        2
 5 Belgium BEL          2020-01-25     0             0                        3
 6 Belgium BEL          2020-01-26     0             0                        4
 7 Belgium BEL          2020-01-27     0             0                        5
 8 Belgium BEL          2020-01-28     0             5.56                     6
 9 Belgium BEL          2020-01-29     0             5.56                     7
10 Belgium BEL          2020-01-30     0             5.56                     8
# ℹ 5,690 more rows
# ℹ 2 more variables: type <fct>, country_type <fct>
…
