Modelling epidemics with R - 5 Estimating the reproduction number
…
  list(df_country = df_country, dates_country = dates_country)
}

For example, for the UK:

out_of_sample_horizon <- 0 # This variable is explained later
cases_uk <- get_cases_country(
  country_name = "United Kingdom", sample = "first"
)
cases_uk$df_country

# A tibble: 60 × 8
   country  country_code date       value stringency_index days_since_2020_01_22
   <chr>    <chr>        <date>     <int>            <dbl>                 <dbl>
 1 United … GBR          2020-01-31     2             8.33                     9
 2 United … GBR          2020-02-01     2             8.33                    10
 3 United … GBR          2020-02-02     2            11.1                     11
 4 United … GBR          2020-02-03     8            11.1                     12
 5 United … GBR          2020-02-04     8            11.1                     13
 6 United … GBR          2020-02-05     9            11.1                     14
 7 United … GBR          2020-02-06     9            11.1                     15
 8 United … GBR          2020-02-07     9            11.1                     16
 9 United … GBR          2020-02-08    13            11.1                     17
10 United … GBR          2020-02-09    14            11.1                     18
# ℹ 50 more rows
# ℹ 2 more variables: t <dbl>, y <int>
…
country_name <- "United Kingdom"

5.4.1 Exponential model

model_function <- exponential_f

We need to get the data that contain the number of cases for the UK. The previously defined get_cases_country() function can be used:

cases_country <- get_cases_country(country_name, sample = "first")
df_country <- cases_country$df_country
dates_country <- cases_country$dates_country
cases_country

$df_country
# A tibble: 60 × 8
   country  country_code date       value stringency_index days_since_2020_01_22
   <chr>    <chr>        <date>     <int>            <dbl>                 <dbl>
 1 United … GBR          2020-01-31     2             8.33                     9
 2 United … GBR          2020-02-01     2             8.33                    10
 3 United … GBR          2020-02-02     2            11.1                     11
 4 United … GBR          2020-02-03     8            11.1                     12
 5 United … GBR          2020-02-04     8            11.1                     13
 6 United … GBR          2020-02-05     9            11.1                     14
 7 United … GBR          2020-02-06     9            11.1                     15
 8 United … GBR          2020-02-07     9            11.1                     16
 9 United … GBR          2020-02-08    13            11.1                     17
10 United … GBR          2020-02-09    14            11.1                     18
# ℹ 50 more rows
# ℹ 2 more variables: t <dbl>, y <int>
…
Then, we can plot the observed values and the estimated ones. First, let us get the estimated values, using the obtained parameters:

fitted_val_expo_uk <- 
  df_country |> 
  mutate(index = row_number()-1) |> 
  mutate(
    model_type   = "Exponential",
    fitted_value = model_function(theta = params$coef_estimate, x = index)
  )
fitted_val_expo_uk

# A tibble: 60 × 11
   country  country_code date       value stringency_index days_since_2020_01_22
   <chr>    <chr>        <date>     <int>            <dbl>                 <dbl>
 1 United … GBR          2020-01-31     2             8.33                     9
 2 United … GBR          2020-02-01     2             8.33                    10
 3 United … GBR          2020-02-02     2            11.1                     11
 4 United … GBR          2020-02-03     8            11.1                     12
 5 United … GBR          2020-02-04     8            11.1                     13
 6 United … GBR          2020-02-05     9            11.1                     14
 7 United … GBR          2020-02-06     9            11.1                     15
 8 United … GBR          2020-02-07     9            11.1                     16
 9 United … GBR          2020-02-08    13            11.1                     17
10 United … GBR          2020-02-09    14            11.1                     18
# ℹ 50 more rows
# ℹ 5 more variables: t <dbl>, y <int>, index <dbl>, model_type <chr>,
#   fitted_value <dbl>
…
fitted_val_expo_uk_80 <- tibble(
  country  = country_name,
  index    = seq_len(horizon_pred) - 1,
  value    = obs,
  type_obs = type_obs,
  date     = dates
) |> 
  mutate(
    model_type   = "Exponential",
    fitted_value = model_function(theta = params$coef_estimate, x = index)
  )
fitted_val_expo_uk_80

# A tibble: 80 × 7
   country        index value type_obs date       model_type  fitted_value
   <chr>          <dbl> <int> <chr>    <date>     <chr>              <dbl>
 1 United Kingdom     0     2 obs      2020-01-31 Exponential         4.54
 2 United Kingdom     1     2 obs      2020-02-01 Exponential         5.29
 3 United Kingdom     2     2 obs      2020-02-02 Exponential         6.16
 4 United Kingdom     3     8 obs      2020-02-03 Exponential         7.17
 5 United Kingdom     4     8 obs      2020-02-04 Exponential         8.34
 6 United Kingdom     5     9 obs      2020-02-05 Exponential         9.71
 7 United Kingdom     6     9 obs      2020-02-06 Exponential        11.3 
 8 United Kingdom     7     9 obs      2020-02-07 Exponential        13.2 
 9 United Kingdom     8    13 obs      2020-02-08 Exponential        15.3 
10 United Kingdom     9    14 obs      2020-02-09 Exponential        17.8 
# ℹ 70 more rows
…
We can compute the predicted values and store those in a tibble:

fitted_val_genexpo_uk <- 
  df_country |> 
  mutate(index = row_number()-1) |> 
  mutate(
    model_type   = "Gen_Exponential",
    fitted_value = model_function(theta = params$coef_estimate, x = index)
  )
fitted_val_genexpo_uk

# A tibble: 60 × 11
   country  country_code date       value stringency_index days_since_2020_01_22
   <chr>    <chr>        <date>     <int>            <dbl>                 <dbl>
 1 United … GBR          2020-01-31     2             8.33                     9
 2 United … GBR          2020-02-01     2             8.33                    10
 3 United … GBR          2020-02-02     2            11.1                     11
 4 United … GBR          2020-02-03     8            11.1                     12
 5 United … GBR          2020-02-04     8            11.1                     13
 6 United … GBR          2020-02-05     9            11.1                     14
 7 United … GBR          2020-02-06     9            11.1                     15
 8 United … GBR          2020-02-07     9            11.1                     16
 9 United … GBR          2020-02-08    13            11.1                     17
10 United … GBR          2020-02-09    14            11.1                     18
# ℹ 50 more rows
# ℹ 5 more variables: t <dbl>, y <int>, index <dbl>, model_type <chr>,
#   fitted_value <dbl>
…
fitted_val_genexpo_uk_80 <- tibble(
  country  = country_name,
  index    = seq_len(horizon_pred) - 1,
  value    = obs,
  type_obs = type_obs,
  date     = dates
) |> 
  mutate(
    model_type   = "Gen_Exponential",
    fitted_value = model_function(theta = params$coef_estimate, x = index)
  )
fitted_val_genexpo_uk_80

# A tibble: 80 × 7
   country        index value type_obs date       model_type      fitted_value
   <chr>          <dbl> <int> <chr>    <date>     <chr>                  <dbl>
 1 United Kingdom     0     2 obs      2020-01-31 Gen_Exponential     1.97e-55
 2 United Kingdom     1     2 obs      2020-02-01 Gen_Exponential     2.32e-10
 3 United Kingdom     2     2 obs      2020-02-02 Gen_Exponential     5.95e- 8
 4 United Kingdom     3     8 obs      2020-02-03 Gen_Exponential     1.53e- 6
 5 United Kingdom     4     8 obs      2020-02-04 Gen_Exponential     1.53e- 5
 6 United Kingdom     5     9 obs      2020-02-05 Gen_Exponential     9.13e- 5
 7 United Kingdom     6     9 obs      2020-02-06 Gen_Exponential     3.93e- 4
 8 United Kingdom     7     9 obs      2020-02-07 Gen_Exponential     1.35e- 3
 9 United Kingdom     8    13 obs      2020-02-08 Gen_Exponential     3.93e- 3
10 United Kingdom     9    14 obs      2020-02-09 Gen_Exponential     1.01e- 2
# ℹ 70 more rows
…
